{
  "code": "1",
  "result": "rankingList",
  "message": "排行榜",
  "data": {
    "total": 97,
    "per_page": "1",
    "current_page": 1,
    "last_page": 97,
    "data": [
      {
        "name": "于凤珍",
        "tetx": "你说的话很多很多很多和"
      }
    ]
  }
}